<?xml version="1.0" encoding="UTF-8" standalone="no"?>
<!-- Created with Inkscape (http://www.inkscape.org/) -->

<svg
   xmlns:dc="http://purl.org/dc/elements/1.1/"
   xmlns:cc="http://creativecommons.org/ns#"
   xmlns:rdf="http://www.w3.org/1999/02/22-rdf-syntax-ns#"
   xmlns:svg="http://www.w3.org/2000/svg"
   xmlns="http://www.w3.org/2000/svg"
   xmlns:sodipodi="http://sodipodi.sourceforge.net/DTD/sodipodi-0.dtd"
   xmlns:inkscape="http://www.inkscape.org/namespaces/inkscape"
   id="svg3005"
   version="1.1"
   inkscape:version="0.48.4 r9939"
   width="360.99998"
   height="360.99998"
   xml:space="preserve"
   sodipodi:docname="cylindrical.pdf"><metadata
     id="metadata3011"><rdf:RDF><cc:Work
         rdf:about=""><dc:format>image/svg+xml</dc:format><dc:type
           rdf:resource="http://purl.org/dc/dcmitype/StillImage" /><dc:title></dc:title></cc:Work></rdf:RDF></metadata><defs
     id="defs3009" /><sodipodi:namedview
     pagecolor="#ffffff"
     bordercolor="#666666"
     borderopacity="1"
     objecttolerance="10"
     gridtolerance="10"
     guidetolerance="10"
     inkscape:pageopacity="0"
     inkscape:pageshadow="2"
     inkscape:window-width="640"
     inkscape:window-height="480"
     id="namedview3007"
     showgrid="false"
     inkscape:zoom="0.65373967"
     inkscape:cx="180.49998"
     inkscape:cy="180.49998"
     inkscape:window-x="0"
     inkscape:window-y="0"
     inkscape:window-maximized="0"
     inkscape:current-layer="g3013" /><g
     id="g3013"
     inkscape:groupmode="layer"
     inkscape:label="cylindrical"
     transform="matrix(1.25,0,0,-1.25,0,360.99998)"><g
       id="g3015"><g
         id="g3017"
         transform="matrix(1,0,0,-1,0,288.79999)"><path
           d="m 288.398,144.391 c 0,79.527 -64.468,144 -144,144 -79.527,0 -144,-64.473 -144,-144 0,-79.532 64.473,-144 144,-144 79.532,0 144,64.468 144,144 z"
           style="fill:#000000;fill-opacity:1;fill-rule:nonzero;stroke:#ffffff;stroke-opacity:1;stroke-width:0.8;stroke-linecap:butt;stroke-linejoin:miter;stroke-miterlimit:4;stroke-dasharray:none"
           id="path3019" /></g><g
         id="g3021"
         transform="matrix(1,0,0,-1,0,288.79999)"><path
           d="m 256.398,144.391 c 0,61.855 -50.14,112 -112,112 -61.855,0 -112,-50.145 -112,-112 0,-61.856 50.145,-112 112,-112 61.86,0 112,50.144 112,112 z"
           style="fill:#ffffff;fill-opacity:1;fill-rule:nonzero;stroke:#ffffff;stroke-opacity:1;stroke-width:0.8;stroke-linecap:butt;stroke-linejoin:miter;stroke-miterlimit:4;stroke-dasharray:none"
           id="path3023" /></g><g
         id="g3025"
         transform="matrix(1,0,0,-1,0,288.79999)"><path
           d="m 216.398,144.391 c 0,39.761 -32.234,72 -72,72 -39.761,0 -72,-32.239 -72,-72 0,-39.766 32.239,-72 72,-72 39.766,0 72,32.234 72,72 z"
           style="fill:#000000;fill-opacity:1;fill-rule:nonzero;stroke:#ffffff;stroke-opacity:1;stroke-width:0.8;stroke-linecap:butt;stroke-linejoin:miter;stroke-miterlimit:4;stroke-dasharray:none"
           id="path3027" /></g><g
         id="g3029"
         transform="matrix(1,0,0,-1,0,288.79999)"><path
           d="m 184.398,144.391 c 0,22.089 -17.906,40 -40,40 -22.089,0 -40,-17.911 -40,-40 0,-22.094 17.911,-40 40,-40 22.094,0 40,17.906 40,40 z"
           style="fill:#ffffff;fill-opacity:1;fill-rule:nonzero;stroke:#ffffff;stroke-opacity:1;stroke-width:0.8;stroke-linecap:butt;stroke-linejoin:miter;stroke-miterlimit:4;stroke-dasharray:none"
           id="path3031" /></g></g></g></svg>